<svg xmlns="http://www.w3.org/2000/svg" xmlns:xlink="http://www.w3.org/1999/xlink" width="16" height="16" viewBox="0 0 16 16">
    <defs>
        <circle id="b" cx="1072" cy="580" r="4"/>
        <filter id="a" width="250%" height="250%" x="-75%" y="-75%" filterUnits="objectBoundingBox">
            <feOffset in="SourceAlpha" result="shadowOffsetOuter1"/>
            <feGaussianBlur in="shadowOffsetOuter1" result="shadowBlurOuter1" stdDeviation="2"/>
            <feColorMatrix in="shadowBlurOuter1" values="0 0 0 0 0.360784314 0 0 0 0 0.992156863 0 0 0 0 1 0 0 0 1 0"/>
        </filter>
    </defs>
    <g fill="none" fill-rule="evenodd" transform="translate(-1064 -572)">
        <use fill="#000" filter="url(#a)" xlink:href="#b"/>
        <use fill="#5CFDFF" xlink:href="#b"/>
    </g>
</svg>
