<svg xmlns="http://www.w3.org/2000/svg" width="20" height="20" viewBox="0 0 20 20">
    <path fill="#E09D00" fill-rule="nonzero" d="M19.997 2.065a1.94 1.94 0 0 0-.55-1.452A2.055 2.055 0 0 0 17.981 0H2.018C1.468 0 .933.223.554.613a1.94 1.94 0 0 0-.551 1.452c.08 1.49.451 2.85 1.105 4.041a8.563 8.563 0 0 0 2.117 2.529c.149.121.298.234.445.34.074.52.216 1.026.428 1.514a6 6 0 0 0 1.326 1.915c.568.553 1.23.987 1.967 1.291a6.272 6.272 0 0 0 1.868.451v1.413c-.655.1-1.267.334-1.77.68-.836.574-1.314 1.42-1.314 2.318V20h7.65v-1.443c0-.899-.478-1.744-1.313-2.318a4.276 4.276 0 0 0-1.771-.68v-1.413a6.272 6.272 0 0 0 1.868-.45 6.179 6.179 0 0 0 1.967-1.292 6 6 0 0 0 1.326-1.915c.212-.488.354-.994.428-1.514.147-.106.296-.219.445-.34a8.563 8.563 0 0 0 2.117-2.529c.654-1.191 1.026-2.551 1.105-4.041zm-5.489 7.927c-.73 1.61-2.385 2.735-4.31 2.735h-.397c-1.924 0-3.579-1.124-4.309-2.735a4.466 4.466 0 0 1-.4-1.822V1.442h9.815V8.17a4.464 4.464 0 0 1-.399 1.822zM1.482 1.99a.528.528 0 0 1 .536-.547h1.593v5.576C2.56 5.966 1.61 4.368 1.482 1.989zm10.861 16.567H7.657c0-.83.915-1.515 2.09-1.602h.506c1.175.087 2.09.771 2.09 1.602zM18.518 1.99c-.128 2.378-1.078 3.976-2.129 5.029V1.443h1.593c.306 0 .551.25.536.547z"/>
</svg>
