<svg xmlns="http://www.w3.org/2000/svg" width="24" height="24" viewBox="0 0 24 24">
    <g fill="#FFF" fill-rule="nonzero">
        <path d="M11.988 16.2a4.023 4.023 0 0 1-2.087-.574 4.335 4.335 0 0 1-1.52-1.517 4.024 4.024 0 0 1-.581-2.097c0-.749.194-1.455.578-2.105A4.305 4.305 0 0 1 9.9 8.374a4.023 4.023 0 0 1 2.087-.574c.745 0 1.447.192 2.095.572.644.377 1.16.892 1.54 1.535.383.65.577 1.356.577 2.105 0 .75-.195 1.454-.58 2.097a4.305 4.305 0 0 1-1.537 1.52c-.648.38-1.35.571-2.095.571zm0-1.57c.472 0 .908-.119 1.32-.36.418-.246.745-.568.99-.976.237-.398.354-.82.354-1.282 0-.464-.117-.892-.358-1.299a2.718 2.718 0 0 0-.986-.982 2.554 2.554 0 0 0-1.32-.361c-.47 0-.9.118-1.304.358-.41.244-.733.57-.978.985-.24.407-.358.835-.358 1.299 0 .462.117.884.355 1.282.245.41.57.733.981.978.404.24.834.358 1.304.358z"/>
        <path d="M22.3 8.63v6.74c0 1.628-.86 3.134-2.259 3.949l-5.78 3.37a4.485 4.485 0 0 1-4.522 0l-5.78-3.37a4.569 4.569 0 0 1-2.259-3.95V8.63c0-1.628.86-3.134 2.259-3.949l5.78-3.37a4.485 4.485 0 0 1 4.522 0l5.78 3.37a4.569 4.569 0 0 1 2.259 3.95zm-1.806 0c0-.98-.518-1.886-1.358-2.376l-5.78-3.37a2.69 2.69 0 0 0-2.712 0l-5.78 3.37A2.749 2.749 0 0 0 3.506 8.63v6.74c0 .98.518 1.886 1.358 2.376l5.78 3.37c.84.489 1.873.489 2.712 0l5.78-3.37a2.749 2.749 0 0 0 1.358-2.376V8.63z"/>
    </g>
</svg>
