<svg xmlns="http://www.w3.org/2000/svg" width="16" height="16" viewBox="0 0 16 16">
    <path fill="#5C8F99" fill-rule="nonzero" d="M8 15.333A7.333 7.333 0 1 1 8 .667a7.333 7.333 0 0 1 0 14.666zM8 14A6 6 0 1 0 8 2a6 6 0 0 0 0 12zm.657-10h.024a.498.498 0 0 1 .348.153.479.479 0 0 1 .127.465l-.46 2.357h1.466a.503.503 0 0 1 .412.798L7.73 11.796a.556.556 0 0 1-.174.153.446.446 0 0 1-.214.051.71.71 0 0 1-.107-.008.52.52 0 0 1-.344-.254.466.466 0 0 1-.056-.325l.467-2.685-1.465-.008a.503.503 0 0 1-.412-.798l2.843-3.71a.061.061 0 0 0 .012-.016.344.344 0 0 1 .123-.11.353.353 0 0 1 .099-.059A.493.493 0 0 1 8.618 4h.039z"/>
</svg>
