<svg xmlns="http://www.w3.org/2000/svg" width="16" height="16" viewBox="0 0 16 16">
    <path fill="#5C8F99" fill-rule="nonzero" d="M9.237 9.756l1.405 1.744c.268.334-.174.77-.509.499l-1.75-1.414a1.389 1.389 0 0 1-1.595-.535 1.357 1.357 0 0 1-.008-1.512 1.392 1.392 0 0 1 2.146-.21c.385.39.486.949.31 1.428zM13.4 4.58l-.347.344a6.63 6.63 0 0 1 1.655 4.38c0 3.692-3.03 6.697-6.754 6.697C4.23 16 1.2 12.995 1.2 9.302c0-3.425 2.608-6.255 5.959-6.646V1.577H6.33A.792.792 0 0 1 5.535.79c0-.436.357-.789.796-.789h3.247c.439 0 .794.353.795.789a.793.793 0 0 1-.795.788h-.829v1.079A6.752 6.752 0 0 1 12.3 4.183l.351-.347-.176-.175a.784.784 0 0 1 0-1.115.8.8 0 0 1 1.125 0L14.7 3.638c.31.308.31.808 0 1.115a.8.8 0 0 1-1.125 0L13.4 4.58zm-5.446 9.843c2.847 0 5.163-2.297 5.164-5.12 0-2.823-2.317-5.12-5.164-5.12-2.847 0-5.163 2.297-5.163 5.12s2.316 5.12 5.163 5.12z"/>
</svg>
