<svg xmlns="http://www.w3.org/2000/svg" width="124" height="124" viewBox="0 0 124 124">
    <defs>
        <linearGradient id="a" x1="51.355%" x2="51.355%" y1="0%" y2="100%">
            <stop offset="0%" stop-color="#FFF199"/>
            <stop offset="17.261%" stop-color="#12012E" stop-opacity=".6"/>
            <stop offset="81.619%" stop-color="#12012E" stop-opacity=".6"/>
            <stop offset="100%" stop-color="#07E8A0"/>
        </linearGradient>
    </defs>
    <path fill="url(#a)" fill-rule="nonzero" d="M62 124c34.242 0 62-27.758 62-62 0-34.242-27.758-62-62-62C27.758 0 0 27.758 0 62c0 34.242 27.758 62 62 62zm0-2C28.863 122 2 95.137 2 62S28.863 2 62 2s60 26.863 60 60-26.863 60-60 60z"/>
</svg>
